20

C          1.80120       -0.60444       -1.71502
C          0.85717       -0.93777       -0.55373
C          0.21273        0.30428        0.07197
H          0.97986        1.07248        0.23737
H         -0.51110        0.75306       -0.62196
C         -0.47103       -0.01609        1.40002
H         -1.29355       -0.72720        1.26267
H          0.23645       -0.47423        2.10081
C         -1.01158        1.23863        2.03907
O         -0.41016        1.86940        2.90002
N         -2.21389        1.66310        1.56052
H         -2.62619        2.47960        1.99264
H         -2.77470        1.11163        0.92660
N         -0.17920       -1.88632       -1.01435
O          1.47222        0.50773       -2.39866
O          2.71405       -1.31503       -2.10891
H          1.47279       -1.43024        0.20911
H          0.29112       -2.70884       -1.39991
H         -0.68219       -1.46752       -1.79818
H          2.13622        0.54609       -3.11927
